{
  "name": "Eduardo Medel",
  "position": "Help Desk",
  "site": "MX",
  "picture": "foo/bar.png",
  "questions":
  [
    {
    "5":
      {
        "call_to_action": "¡Ve por tu equipo!",
        "type": "text",
        "content": "Encuentra a Eduardo en su oficina, localizada fuente a la sala de juntas Nopales en el piso 15 (sí, enfrente de Paola). Edu te proporcionará el equipo con el que vas a comenzar tus labores en Globant."
      }
    }

  ]
}